…
It looks like Astro-L2/3IT is the most common cross-community border.

    summarize_true_border_edges(y2) #would be cool if I added columns with the # of A spots & number of B spots too (non border spots)

    ## # A tibble: 43 x 2
    ##    celltype.border.edges edge.count
    ##    <fct>                      <int>
    ##  1 Astro --- L2/3 IT            141
    ##  2 L2/3 IT --- L5 IT            108
    ##  3 L6 CT --- Oligo               94
    ##  4 L5 IT --- L6 CT               73
    ##  5 L2/3 IT --- L4                70
    ##  6 L6 CT --- NP                  60
    ##  7 L4 --- NP                     44
    ##  8 L5 IT --- Sst                 43
    ##  9 L6 IT --- Sst                 31
    ## 10 L2/3 IT --- Lamp5             27
    ## # ... with 33 more rows
…
